{
  "type": "service_account",
  "project_id": "neswork-th",
  "private_key_id": "3ec0a313af2dba272ac512ac44babb5d1234f191",
  "private_key": "-----BEGIN PRIVATE KEY-----\nMIIEvgIBADANBgkqhkiG9w0BAQEFAASCBKgwggSkAgEAAoIBAQDixPaBhRUAYnPh\nV4t0G95PWVS2lsvspWNj/Os8kXtg44kEzK9EUSwf7oxSOYsikGB49F4PZggCVgTi\nLd3LeCMNCmT1qXoYnaZrB+zbc5S+x1/QMfQIAOyG5syp1zgRxVFIBXyn7jTHnVYV\n2kogf3/gjqS4HfFOWz9KZtEaEZD24hkcLYnx2sKPWpjncSZYYCTt+XFCCe/80ZMJ\nuGG8jpGQbwSFzzN2kd1HgN9BH2Extj1HUukloTZtUVIk7TJsGmJBB6+FT6GnXgab\n3blUVbQTcutL2zwF3bXKrPzrIYAwHn4VcI8dnLU/dtmvNAW2r3i/Q6Y34MPFcscv\ndP1W/Ha/AgMBAAECggEAF9zNanBcTGUPzUekEhIYq6rlIi2YxIyGz+++ZT+TMcKK\nbuncYPOrEVUjM50rNKDoC0epBN/MufTeoK+zkNn8fj54xJe9Pw01L5AZmYzTuzD0\nYSPQim27y1pKxm3c+um+QDZA7tQ/KOjiinwk+WnRRV+ymk6e+jWEjHS9+OCeVjbe\nhTVnTvZa7h1zhoXZWFxQcAOW4BXGvA3MUGKD3EW5/Av14Q5xEKE0tZHxsN42jeyN\nzs3bo1vx3+oZKZYJCokO/oZ4f90cmowLH5HMYGUMy3NWAndq3uyDOUNnNMKrAt9l\niZx19sRkr+TiZoTguO2yyJV1b3GVY1//zZTWYMdU2QKBgQD6E6c7TwU0h+NgPEsb\nZ/pIhQgfHbRwIQA/M1k7/Nb22fvhOj5g1jcyiBx6hYdYA3h2VwbtueXV1tsNkTQV\nt+/7mAtdzorXVJvd1revxKvH1AC9N68tAWPW2+u4t5v3a62hp6SyDxm01F22EZyC\nxCFwqI6xBYzal82HMK+T54DOUwKBgQDoI/wZJKv7quu7u2TOolUTy3+V7/G2SNwk\nDj7RdGBlrMm1C27jtju1LLO/th2rNZ/ZTOOxO3cT+ZBsTvR4aLT6vVK5WAZwubVj\nsh7mU3ZOFKcfWVmhhafocah24+0WB8z33HRieV7N0urTYbrUXIUob33hswBepMPu\nIkKMgSawZQKBgH6RDdWNk9PXZrPhMB4pzNmBQvAEp7sMaMST53jd6ao7/ygpw0Jd\niMgxbUBxbmOUNhamyyHsMS++M1W1hMftNS9/71jF3S1IbC6lqofyIQLdAJbDpQxB\nJNesrKvreauKuvETGN7pl5gW12r7lNv2CfqrxLRBW92ScPoYIPTZeS5zAoGBALNu\nHQ3SKpz8H/mbfu+4ycnjIVrjfBFJf97eo++B5ICybbZif/PCh6QiSU2Flqkfac6s\nf9IeBIyL+fW9kXkAdeLZM3fPcirvYCUPKJMfL/JqREMW7RDMHlysfWpoAnlkzilH\nXS5AYeb1gEyi3aYHXWVDyCkMEt0Uvdzy3j18FkuBAoGBAPoLbZXIVtHoPwft7y5v\nlNOOwaGECIu/wFzdUoJDI7JTdR5TL1tROH1mOAPA7rUVG0FT00wn1VkyBUzoTQD7\n4XuvM/WUADQpfjSw7i2YRvY1GQIyhG5w8ZzMgb4SDUNa6AuY6b/EgP5c8NxZh0y7\nIWDUUYN0Oc5OSAkFvssbnQu+\n-----END PRIVATE KEY-----\n",
  "client_email": "neswork-ssh@neswork-th.iam.gserviceaccount.com",
  "client_id": "108122020680375758287",
  "auth_uri": "https://accounts.google.com/o/oauth2/auth",
  "token_uri": "https://oauth2.googleapis.com/token",
  "auth_provider_x509_cert_url": "https://www.googleapis.com/oauth2/v1/certs",
  "client_x509_cert_url": "https://www.googleapis.com/robot/v1/metadata/x509/neswork-ssh%40neswork-th.iam.gserviceaccount.com"
}
